{
  "agents": [
    {
      "uuid": "uuid",
      "alias": "alias",
      "type": 20,
      "secureCommunication": false,
      "publicEcdsaKey": "MIGnMBAGByqGSM49AgEGBSuBBAAnA4GSAAQCr+2iwneYUrJSv7/8arYP5dgpytq+ZYnIEVlVzgnnF5fAgjTLGRozHEYB2rGZiDKDHGLRcZfmT3NiRTvLpApTF4NsNP05LQkE9CwYzAEPrmyRDihvdgD9K9kRJQzTvFBT4g1FAvd61Varxg7NbtHRYoaKVPpgvnk1EH5jfVFJd2508IVye2nvEWH1mA5W1Ys\u003d",
      "commsMethods": []
    }
  ]
}